module loans_client/go

go 1.16

require (
	github.com/go-flutter-desktop/go-flutter v0.43.0
	github.com/miguelpruivo/flutter_file_picker/go v0.0.0-20210622152105-9f0a811028a0
	github.com/pkg/errors v0.9.1
)
